
#####################################################
# Dur-Vazhatun Mutant Rebels; spawned during Messenger from the Stars event chain #
#####################################################

vazhatun_glowing_mutants = {

	color = { 50 85 210 }

	area = nation 					# Stays within the nation
	government = any	
	defection = none				# Does not defect
	independence = none				# Does not strive for independence
	unit_transfer = yes
	gfx_type = culture_province
	will_relocate = yes	
	
	resilient = yes
	reinforcing = yes
	general = no
	smart = no
	
	artillery = 0
	infantry = 1
	cavalry = 0
	
	morale = 1.2
	
	# Possible handle actions
	handle_action_negotiate = no
	handle_action_stability = no
	handle_action_build_core = no
	handle_action_send_missionary = no
	
	# The rebel type with the highest modifier for this province gets picked
	spawn_chance = {
		factor = 0
	}
 
 	# This is checked for EACH province in the Area of Operations
	movement_evaluation = {
		factor = 1
		modifier = {
			factor = 0.1
			units_in_province = 1
		}
		modifier = {
			factor = 0.001
			controlled_by = REB
		}
		modifier = {
			factor = 10
			is_capital = yes
		}
		modifier = {
			factor = 1.5
			unrest = 2
		}
		modifier = {
			factor = 1.5
			unrest = 4
		}
		modifier = {
			factor = 1.5
			unrest = 6
		}
	}
 
 	# Province Scope
 	siege_won_trigger = {
 	}
	siege_won_effect = {
	}
	
	# Country scope
	can_negotiate_trigger = {
		always = yes
	}
	
	# Country scope
	can_enforce_trigger = {
		always = yes
	}
	
	# Localisation for their demands
	demands_description = "vazhatun_mutants_demand"
	
	# Country Scope	
	demands_enforced_effect = {
		serpents_vale_region = {
			limit = {
				owned_by = ROOT
				has_rebel_faction = vazhatun_glowing_mutants
			}
			cede_province = ---
			hidden_effect = {
				change_native_ferocity = 9
				change_native_hostileness = 9
				change_native_size = 5000
			}
		}
		
		northern_pass_region = {
			limit = {
				owned_by = ROOT
				has_rebel_faction = vazhatun_glowing_mutants
			}
			cede_province = ---
			hidden_effect = {
				change_native_ferocity = 9
				change_native_hostileness = 9
				change_native_size = 5000
			}
		}
		
		forbidden_lands_superregion = {
			limit = {
				owned_by = ROOT
				has_rebel_faction = vazhatun_glowing_mutants
			}
			cede_province = ---
			hidden_effect = {
				change_native_ferocity = 9
				change_native_hostileness = 9
				change_native_size = 5000
			}
		}
		
		country_event = {
			id = flavor_vazhatun.26
		}
	}
}
