country_decisions = {
	vazhatun_enable_astronomy = {
		potential = {
			tag = I03
			has_country_flag = vazhatun_astronomy_unlocked
			NOT = { has_country_modifier = vazhatun_astronomy_enabled }
		}
		allow = {
			owns = 4020
			adm_power = 25
			NOT = { has_disaster = astral_terror }
			NOT = { has_country_modifier = vazhatun_recent_terror }
		}
		effect = {
			add_adm_power = -25
			add_country_modifier = {
				name = vazhatun_astronomy_enabled
				duration = -1
			}
			custom_tooltip = vazhatun_enable_astronomy_tt
		}
		ai_will_do = {
			factor = 1
			modifier = {
				factor = 0
				has_disaster_progress = {
					disaster = astral_terror
					value = 10
				}
			}
		}
	}
	
	vazhatun_disable_astronomy = {
		potential = {
			tag = I03
			has_country_flag = vazhatun_astronomy_unlocked
			has_country_modifier = vazhatun_astronomy_enabled
		}
		allow = {
			adm_power = 25
		}
		effect = {
			add_adm_power = -25
			add_prestige = -5
			add_estate_loyalty = {
				estate = estate_church
				loyalty = -5
			}
			remove_country_modifier = vazhatun_astronomy_enabled
			custom_tooltip = vazhatun_disable_astronomy_tt
		}
		ai_will_do = {
			factor = 1
			modifier = {
				factor = 0
				NOT = {
					has_disaster_progress = {
						disaster = astral_terror
						value = 50
					}
				}
			}
		}
	}
	
	vazhatun_observation_menu = {
		potential = {
			tag = I03
			has_country_flag = vazhatun_astronomy_unlocked
			NOT = {
				check_variable = {
					which = vazhatun_observations_completed
					value = 13
				}
			}
		}
		
		allow = {
			NOT = { has_disaster = astral_terror }
			hidden_trigger = {
				NOT = { has_country_flag = vazhatun_observation_menu_open }
			}
		}
		effect = {
			country_event = { id = flavor_vazhatun.96 }
			hidden_effect = { set_country_flag = vazhatun_observation_menu_open }
		}
	}
	
	vazhatun_show_astronomy_info = {
		potential = {
			tag = I03
			has_country_flag = vazhatun_astronomy_unlocked
		}
		allow = {
			vazhatun_has_knowledge = { amount_50 = yes }
			NOT = { has_disaster = astral_terror }
			hidden_trigger = {
				NOT = { has_country_flag = vazhatun_astral_menu_open }
			}
		}
		effect = {
			custom_tooltip = vazhatun_display_astronomy_tt
			hidden_effect = {
				set_country_flag = vazhatun_astral_menu_open
				country_event = { id = flavor_vazhatun.97 }
			}
		}
	}
}